{
  "images" : [
    {
      "size" : "800x800",
      "idiom" : "mac",
      "filename" : "PNG/Gartenhaus.png",
      "scale" : "1x"
    },
    {
      "size" : "800x800",
      "idiom" : "mac",
      "filename" : "PNG/Gartenhaus@2x.png",
      "scale" : "2x"
    }
  ],
  "info" : {
    "version" : 1,
    "author" : "xcode"
  }
}